Trabajo Grupal
…
¿Cuál es el partido ganador en los municipios de más de 100 000 habitantes de censo en cada una de las elecciones?

Partido ganador

 datos_elecciones_tidy |> group_by(fecha, id_mun) |> 
   filter(censo>100000) |> 
   slice_max(voto, n=1 ) |> 
   select(fecha, id_mun, siglas, voto, censo) |> 
   arrange(desc(censo))

# A tibble: 282 × 5
# Groups:   fecha, id_mun [282]
   fecha      id_mun    siglas   voto   censo
   <date>     <glue>    <chr>   <dbl>   <dbl>
 1 2019-11-01 12-28-079 PP     479448 2384269
 2 2019-04-01 12-28-079 PSOE   502909 2374370
 3 2015-12-01 12-28-079 PP     646348 2371327
 4 2016-06-01 12-28-079 PP     696804 2363829
 5 2011-11-01 12-28-079 PP     880723 2290453
 6 2008-03-01 12-28-079 PP     919701 2262681
 7 2008-03-01 09-08-019 PSOE   356264 1157357
 8 2011-11-01 09-08-019 CIU    212399 1143219
 9 2015-12-01 09-08-019 UP     218053 1141245
10 2016-06-01 09-08-019 UP     196341 1136354
# ℹ 272 more rows
…
ganadores <-
  join_2000 |> 
  group_by(codigo_ccaa, codigo_provincia, codigo_municipio, municipio, anno) |> 
  summarize(diferencia = max(voto) - max(voto[voto != max(voto)]))
  
diferencias <- 
  ganadores |> 
  arrange(desc(diferencia)) |> 
  slice_head(n = 2)

Diferencias

diferencias

# A tibble: 3,965 × 6
# Groups:   codigo_ccaa, codigo_provincia, codigo_municipio, municipio [2,001]
   codigo_ccaa codigo_provincia codigo_municipio municipio       anno diferencia
   <chr>       <chr>            <chr>            <chr>          <dbl>      <dbl>
 1 01          04               003              Adra            2011       4471
 2 01          04               003              Adra            2008       3371
 3 01          04               006              Albox           2011        999
 4 01          04               006              Albox           2016        664
 5 01          04               011              Alhama de Alm…  2008        630
 6 01          04               011              Alhama de Alm…  2015        284
 7 01          04               013              Almería         2011      26950
 8 01          04               013              Almería         2016      16107
 9 01          04               016              Antas           2011        496
10 01          04               016              Antas           2008        436
# ℹ 3,955 more rows

¿Cuáles son los municipios con mayor porcentaje de votos nulos de España?

Porcentaje de votos nulos

join <-
  datos_elecciones_tidy |> 
  left_join(cod_mun, by = c("id_mun" = "cod_mun"))
join

# A tibble: 396,735 × 18
    anno mes   codigo_ccaa codigo_provincia codigo_municipio numero_mesas censo
   <dbl> <chr> <chr>       <chr>            <chr>                   <dbl> <dbl>
 1  2008 03    14          01               001                         2  1838
 2  2008 03    14          01               001                         2  1838
 3  2008 03    14          01               001                         2  1838
 4  2008 03    14          01               001                         2  1838
 5  2008 03    14          01               001                         2  1838
 6  2008 03    14          01               001                         2  1838
 7  2008 03    14          01               001                         2  1838
 8  2008 03    14          01               001                         2  1838
 9  2008 03    14          01               001                         2  1838
10  2008 03    14          01               001                         2  1838
# ℹ 396,725 more rows
# ℹ 11 more variables: participacion_1 <dbl>, participacion_2 <dbl>,
#   votos_blancos <dbl>, votos_nulos <dbl>, votos_candidaturas <dbl>,
#   partido <chr>, voto <dbl>, fecha <date>, id_mun <glue>, siglas <chr>,
#   municipio <chr>

Porcentaje de votos nulos

porcentaje_nulos <-
  join |> 
  group_by(municipio) |> 
  summarise(nulos = sum(votos_nulos)/sum(votos_blancos+ votos_candidaturas + votos_nulos)*100) |> 
  arrange(desc(nulos))

porcentaje_nulos

# A tibble: 8,118 × 2
   municipio             nulos
   <chr>                 <dbl>
 1 Reinoso               10.6 
 2 Fresneda de la Sierra  8.27
 3 Encinas                7.75
 4 Villodre               7.61
 5 Arraya de Oca          7.00
 6 Valdevacas de Montejo  6.94
 7 Cerbón                 6.44
 8 Villasdardo            6.43
 9 Velilla de los Ajos    6.20
10 Pomer                  5.75
# ℹ 8,108 more rows

¿En qué sitios hay mayor participación? ¿Quién ganó en los sitios con mayor participación y donde menos? ¿A quién le beneficia la baja participación?

datos_elecciones <- datos_elecciones_tidy |> 
  mutate(participacion_total = votos_blancos + votos_candidaturas + votos_nulos,
         tasa_participacion = participacion_total / censo)

# Calcular la participación media por municipio
participacion_por_municipio <- datos_elecciones |> 
  group_by(id_mun) |> 
  summarize(tasa_participacion_media = mean(tasa_participacion))
participacion_por_municipio

# A tibble: 8,135 × 2
   id_mun    tasa_participacion_media
   <glue>                       <dbl>
 1 01-04-001                    0.765
 2 01-04-002                    0.749
 3 01-04-003                    0.676
 4 01-04-004                    0.781
 5 01-04-005                    0.806
 6 01-04-006                    0.690
 7 01-04-007                    0.745
 8 01-04-008                    0.821
 9 01-04-009                    0.768
10 01-04-010                    0.793
# ℹ 8,125 more rows
…
# Unir los dataframes basándose en 'fecha' y 'siglas'
comparacion <- inner_join(encuestas, votos, by = c("fecha", "siglas"))

comparacion <-comparacion |> mutate(error=porcentaje_real-estimado_encuesta) |> arrange(desc(porcentaje_real))

ecm <- comparacion |>  
  mutate(Error_Cuadratico = (estimado_encuesta - porcentaje_real)^2) |> 
  summarise(ECM = mean(Error_Cuadratico)) 

error_medio<-mean(comparacion$error) 

comparacion

# A tibble: 3,738 × 7
   fecha      siglas estimado_encuesta media     pollster porcentaje_real  error
   <date>     <chr>              <dbl> <chr>     <chr>              <dbl>  <dbl>
 1 2019-04-28 PSOE                27.9 EL ESPAÑ… SOCIOMÉ…            27.4 -0.5  
 2 2019-04-28 PSOE                26.8 COPE      IMOP                27.4  0.600
 3 2019-04-28 PSOE                28.1 RTVE–FOR… GAD3                27.4 -0.700
 4 2019-04-28 PSOE                25.3 ELECTOMA… ELECTOP…            27.4  2.10 
 5 2019-04-28 PSOE                25.6 ELECTOMA… ELECTOP…            27.4  1.80 
 6 2019-04-28 PSOE                29.5 EL ESPAÑ… SOCIOMÉ…            27.4 -2.10 
 7 2019-04-28 PSOE                27.4 ELECTOMA… ELECTOP…            27.4  0    
 8 2019-04-28 PSOE                28.9 ELDIARIO… CELESTE…            27.4 -1.5  
 9 2019-04-28 PSOE                29.8 EL CONFI… IMOP                27.4 -2.40 
10 2019-04-28 PSOE                30   EL ESPAÑ… SOCIOMÉ…            27.4 -2.6  
# ℹ 3,728 more rows
…
¿En qué municipios han ganado los partidos Autonomicos?

Dejamos los partidos autonomicos

partidos_autonomicos <- c("BNG", "PNV", "ERC", "COMPROMIS", "EH-BILDU")

# Filtramos los datos de los partidos autonomicos
ganador_auotonomicos <- mas_votado |> 
  filter(siglas %in% partidos_autonomicos)  

municipios_autonomicos <- left_join(ganador_auotonomicos, cod_mun, by = c("id_mun" = "cod_mun"))

municipios_autonomicos |> select(anno,municipio)

# A tibble: 8,830 × 4
# Groups:   siglas, anno, id_mun [8,830]
   siglas id_mun     anno municipio
   <chr>  <glue>    <dbl> <chr>    
 1 BNG    11-15-001  2008 Abegondo 
 2 BNG    11-15-002  2008 Ames     
 3 BNG    11-15-003  2008 Aranga   
 4 BNG    11-15-004  2008 Ares     
 5 BNG    11-15-005  2008 Arteixo  
 6 BNG    11-15-006  2008 Arzúa    
 7 BNG    11-15-007  2008 Baña, A  
 8 BNG    11-15-008  2008 Bergondo 
 9 BNG    11-15-009  2008 Betanzos 
10 BNG    11-15-010  2008 Boimorto 
# ℹ 8,820 more rows

Nacionalismos <- ganador_auotonomicos |> 
  mutate(Grupo = case_when(
    siglas %in% c("COMPROMIS", "ERC", "CIU") ~ "Catalan",
    siglas %in% c("PNV", "EH-BILDU") ~ "Vasco",
    siglas == "BNG" ~ "Gallego",
    TRUE ~ "Other"
  ))

Nacionalismos

# A tibble: 8,830 × 6
# Groups:   siglas, anno, id_mun [8,830]
   id_mun     anno censo siglas  voto Grupo  
   <glue>    <dbl> <dbl> <chr>  <dbl> <chr>  
 1 11-15-001  2008  5152 BNG      477 Gallego
 2 11-15-002  2008 19193 BNG     1969 Gallego
 3 11-15-003  2008  2025 BNG      164 Gallego
 4 11-15-004  2008  4762 BNG      447 Gallego
 5 11-15-005  2008 22681 BNG     1978 Gallego
 6 11-15-006  2008  5668 BNG      800 Gallego
 7 11-15-007  2008  4161 BNG      330 Gallego
 8 11-15-008  2008  5652 BNG      435 Gallego
 9 11-15-009  2008 11115 BNG      808 Gallego
10 11-15-010  2008  2106 BNG      180 Gallego
# ℹ 8,820 more rows
…
